<svg width="10" height="20" viewBox="0 0 10 20" fill="none" xmlns="http://www.w3.org/2000/svg">
<path d="M1.28935 0.237078L9.76775 9.39693C9.91666 9.55782 10 9.7736 10 9.99828C10 10.223 9.91666 10.4387 9.76775 10.5996L1.28935 19.7629C1.21999 19.838 1.13705 19.8976 1.04544 19.9383C0.953836 19.979 0.855411 20 0.755977 20C0.656544 20 0.558116 19.979 0.466508 19.9383C0.374899 19.8976 0.291965 19.838 0.2226 19.7629C0.0798931 19.6091 0 19.4025 0 19.1874C0 18.9723 0.0798931 18.7658 0.2226 18.6119L8.19543 9.99828L0.2226 1.38637C0.0803833 1.23258 0.000799179 1.02639 0.000799179 0.811722C0.000799179 0.597052 0.0803833 0.390865 0.2226 0.237078C0.291965 0.162049 0.374899 0.102416 0.466508 0.061697C0.558116 0.0209784 0.656544 0 0.755977 0C0.855411 0 0.953836 0.0209784 1.04544 0.061697C1.13705 0.102416 1.21999 0.162049 1.28935 0.237078Z" fill="#3366CC"/>
</svg>
