<svg width="25" height="21" viewBox="0 0 25 21" fill="none" xmlns="http://www.w3.org/2000/svg">
<path fill-rule="evenodd" clip-rule="evenodd" d="M0.96875 1.73503C0.96875 1.293 1.14434 0.869076 1.45691 0.556515C1.76947 0.243954 2.19339 0.0683594 2.63542 0.0683594H22.6354C23.0774 0.0683594 23.5014 0.243954 23.8139 0.556515C24.1265 0.869076 24.3021 1.293 24.3021 1.73503C24.3021 2.17705 24.1265 2.60098 23.8139 2.91354C23.5014 3.2261 23.0774 3.40169 22.6354 3.40169H2.63542C2.19339 3.40169 1.76947 3.2261 1.45691 2.91354C1.14434 2.60098 0.96875 2.17705 0.96875 1.73503ZM0.96875 10.0684C0.96875 9.62633 1.14434 9.20241 1.45691 8.88985C1.76947 8.57729 2.19339 8.40169 2.63542 8.40169H22.6354C23.0774 8.40169 23.5014 8.57729 23.8139 8.88985C24.1265 9.20241 24.3021 9.62633 24.3021 10.0684C24.3021 10.5104 24.1265 10.9343 23.8139 11.2469C23.5014 11.5594 23.0774 11.735 22.6354 11.735H2.63542C2.19339 11.735 1.76947 11.5594 1.45691 11.2469C1.14434 10.9343 0.96875 10.5104 0.96875 10.0684ZM0.96875 18.4017C0.96875 17.9597 1.14434 17.5357 1.45691 17.2232C1.76947 16.9106 2.19339 16.735 2.63542 16.735H22.6354C23.0774 16.735 23.5014 16.9106 23.8139 17.2232C24.1265 17.5357 24.3021 17.9597 24.3021 18.4017C24.3021 18.8437 24.1265 19.2676 23.8139 19.5802C23.5014 19.8928 23.0774 20.0684 22.6354 20.0684H2.63542C2.19339 20.0684 1.76947 19.8928 1.45691 19.5802C1.14434 19.2676 0.96875 18.8437 0.96875 18.4017Z" fill="#3A5E81"/>
</svg>
