<svg width="19" height="16" viewBox="0 0 19 16" fill="none" xmlns="http://www.w3.org/2000/svg">
<path d="M0.0820948 9.08353L14.6681 9.08353L9.37509 14.3765L10.7891 15.7905L18.4961 8.08353L10.7891 0.376526L9.37509 1.79053L14.6681 7.08353L0.082095 7.08353L0.0820948 9.08353Z" fill="black"/>
</svg>
