<svg width="103" height="36" viewBox="0 0 103 36" fill="none" xmlns="http://www.w3.org/2000/svg">
<path d="M60.3437 21.7162C61.0182 21.7162 61.6546 21.5743 62.2372 21.2938C62.8008 21.0227 63.2188 20.6066 63.5101 20.0234L69.7604 7.12417C69.8585 6.85622 70.1214 6.686 70.4696 6.686C70.6755 6.686 70.8718 6.76481 71.0364 6.90981C71.1599 7.02014 71.3056 7.22189 71.3056 7.57495V21.2875H75.9189V6.60404C75.9189 5.50388 75.7606 4.59287 75.4471 3.88991C75.1368 3.1964 74.6935 2.61638 74.1299 2.1656C73.693 1.82515 73.1864 1.54144 72.6196 1.32078C72.0623 1.10327 71.4322 0.996094 70.7483 0.996094C69.5198 0.996094 68.5192 1.32394 67.7751 1.97331C67.0025 2.6479 66.3534 3.53685 65.85 4.62124L61.186 14.6991C61.0403 15.0774 60.7427 15.2949 60.3532 15.2949C59.9638 15.2949 59.6662 15.0774 59.511 14.6802L54.8533 4.62124C54.3467 3.53685 53.6945 2.6479 52.9124 1.97646C52.1588 1.32709 51.1614 0.996094 49.9519 0.996094C49.2679 0.996094 48.6378 1.10643 48.0806 1.32078C47.5138 1.54144 47.004 1.82515 46.5671 2.1656C46.0066 2.61323 45.5633 3.19325 45.253 3.88676C44.9396 4.58657 44.7812 5.50073 44.7812 6.60089V21.2843H49.3946V7.57179C49.3946 7.21874 49.5402 7.01384 49.6606 6.90666C49.8252 6.7585 50.0215 6.68285 50.2273 6.68285C50.5725 6.68285 50.8353 6.85307 50.9461 7.14939L57.1837 20.0234C57.4751 20.6034 57.8898 21.0164 58.4566 21.2906C59.0297 21.5743 59.6661 21.7162 60.3437 21.7162Z" fill="#09C609"/>
<path d="M44.3672 30.513C44.3672 31.8023 45.5419 32.8268 46.9952 32.8268H51.8112C52.4002 32.8268 52.7959 33.183 52.7959 33.5108C52.7959 33.8387 52.4002 34.1886 51.8112 34.1886H44.3672V35.8246H51.8112C53.2646 35.8246 54.4393 34.8001 54.4393 33.5108C54.4393 32.2153 53.2646 31.1908 51.8112 31.1908H46.9952C46.4063 31.1908 46.0105 30.844 46.0105 30.513C46.0105 30.1852 46.4063 29.8353 46.9952 29.8353H54.4393V28.1992H46.9952C45.5419 28.2024 44.3672 29.2269 44.3672 30.513Z" fill="#09C609"/>
<path d="M60.0261 33.2082V29.8383H64.2405V28.2023H60.0261V26.4023H58.3828V33.2082C58.3828 34.6551 59.5575 35.8246 61.0109 35.8246H64.8421V34.1885H61.0109C60.4536 34.1885 60.0261 33.7598 60.0261 33.2082Z" fill="#09C609"/>
<path d="M75.9487 28.2031H71.1359C69.6825 28.2031 68.5078 29.3726 68.5078 30.8195V33.2121C68.5078 34.659 69.6825 35.8285 71.1359 35.8285H75.9518C77.3989 35.8285 78.5799 34.659 78.5799 33.2121V30.8195C78.5799 29.3726 77.3957 28.2031 75.9487 28.2031ZM76.9334 33.209C76.9334 33.7606 76.4964 34.1893 75.9487 34.1893H71.1359C70.5818 34.1893 70.1511 33.7606 70.1511 33.209V30.8164C70.1511 30.2647 70.5818 29.836 71.1359 29.836H75.9518C76.4996 29.836 76.9366 30.2616 76.9366 30.8164V33.209H76.9334Z" fill="#09C609"/>
<path d="M84.4793 28.6161V28.2031H82.8359V35.8254H84.4793V30.8195C84.4793 30.2679 84.9099 29.8392 85.464 29.8392H89.2952V28.2031H85.464C85.1252 28.2031 84.7959 28.2662 84.4793 28.6161Z" fill="#09C609"/>
<path d="M99.8586 28.2031H95.3751C93.9154 28.2031 92.7344 29.2276 92.7344 30.5169V33.2121C92.7344 34.659 93.9091 35.8285 95.3624 35.8285H102.072V34.1925H95.3624C94.8083 34.1925 94.3777 33.7638 94.3777 33.2121V32.8307H102.502V30.5169C102.502 29.2213 101.318 28.2031 99.8586 28.2031ZM100.856 31.1915H94.3777V30.5138C94.3777 30.1859 94.7798 29.836 95.3751 29.836H99.8586C100.454 29.836 100.856 30.1828 100.856 30.5138V31.1915Z" fill="#09C609"/>
<path d="M37.2471 18.4544C36.3447 17.5213 35.2143 16.7711 33.8876 16.2194C32.5577 15.6646 30.8954 15.3872 28.9513 15.3872H13.0342C12.3977 15.3872 11.9101 15.3368 11.5492 15.2296C11.1692 15.1193 10.8304 14.9459 10.5549 14.7126C9.80769 14.1011 9.42456 13.2972 9.42456 12.3263C9.42456 11.4153 9.73803 10.6461 10.3523 10.0314C10.6278 9.75719 10.9792 9.53968 11.4003 9.38521C11.812 9.2339 12.3471 9.1614 13.031 9.1614H32.3013C35.3504 9.1614 36.9019 7.32991 37.6903 5.3219H11.8183C11.5555 5.31244 5.71679 5.19581 5.36533 10.8857C5.22601 13.1365 5.71996 14.8734 6.83134 16.0523C6.86617 16.087 6.89784 16.1217 6.93266 16.1564C8.36384 17.5812 10.4125 17.7987 11.5207 17.7987H28.1217C28.2737 17.7956 32.1619 17.7104 34.3942 20.1377C35.5911 21.4365 36.0692 23.1954 35.8222 25.3642C35.3599 30.9407 30.3445 31.8643 28.2104 31.9998C26.5069 32.1102 5.54581 32.0219 1.80638 32.003C1.58791 32.6019 1.46759 33.2765 1.47709 34.0488V35.6754H28.9513C30.9967 35.6754 32.7414 35.3539 34.1377 34.7171C35.5341 34.0803 36.7183 33.2166 37.6587 32.148C38.4281 31.2496 39.0519 30.2093 39.5078 29.0682C39.9606 27.9365 40.1886 26.7386 40.1886 25.5029C40.1886 24.1695 39.9258 22.8865 39.4065 21.6886C38.8809 20.4813 38.1558 19.3938 37.2471 18.4544Z" fill="#09C609"/>
<path d="M6.84996 20.3251C8.25264 20.8799 10.1524 21.1636 12.4924 21.1636H27.2284C28.0137 21.1636 28.6121 21.233 29.0554 21.3811C29.5335 21.5419 29.9388 21.8067 30.2586 22.1724C30.8475 22.7555 31.1578 23.5468 31.1578 24.4925C31.1578 25.2774 30.9109 25.9646 30.4233 26.5383C30.1066 26.9008 29.6918 27.1814 29.1916 27.3768C28.7039 27.5659 28.0612 27.6605 27.2284 27.6605H10.4247C8.30014 27.7425 3.92744 28.2784 2.19863 31.1659C6.7518 31.1848 26.5445 31.2636 28.1467 31.1627C30.5246 31.0083 34.5743 30.0436 34.9669 25.2868C35.1886 23.3608 34.7833 21.8288 33.7637 20.7191C31.7879 18.585 28.1625 18.6481 28.1277 18.6512H11.514C10.2411 18.6512 7.86002 18.3801 6.20403 16.6369C4.92484 15.2814 4.3549 13.3302 4.50688 10.8398C4.91217 4.32403 11.7546 4.47849 11.8243 4.48164H37.9718C38.3201 3.27746 38.4341 2.09535 38.4657 1.28521V0.828125H12.4924C10.1524 0.828125 8.26214 1.10868 6.87846 1.66349C5.50111 2.21514 4.3454 2.96539 3.44616 3.89531C2.53743 4.8347 1.81234 5.92225 1.28989 7.12958C0.770615 8.32745 0.507812 9.62935 0.507812 10.9974C0.507812 12.4034 0.761118 13.7147 1.26456 14.8968C1.76801 16.0853 2.4836 17.1634 3.39234 18.0996C4.29157 19.0232 5.45361 19.7735 6.84996 20.3251Z" fill="#09C609"/>
<path d="M102.463 21.2597C102.441 17.0419 99.0059 16.6321 98.0148 16.6006H97.7488H86.8535C86.3216 16.6006 86.0018 16.2602 86.0018 15.6927V14.2553V12.7989V11.787C86.0429 11.7965 86.0841 11.7996 86.1252 11.7996H87.7591C87.8351 11.7996 87.9079 11.7839 87.9775 11.7587C87.9775 11.7587 88.2119 11.7145 88.4113 11.828C88.6108 11.9415 89.0573 12.1842 89.0573 12.1842C89.0573 12.1842 89.2156 12.2756 89.2884 12.5467V13.4262C89.2884 13.6942 89.5069 13.9117 89.776 13.9117H91.0394C91.3085 13.9117 91.527 13.6942 91.527 13.4262V12.1369C91.527 11.869 91.3085 11.6515 91.0394 11.6515H89.7792C89.7539 11.6515 89.7317 11.6546 89.7095 11.6578C89.5987 11.6641 89.3866 11.6704 89.2599 11.6231C89.0858 11.5601 88.576 11.2795 88.576 11.2795C88.576 11.2795 88.367 11.0841 88.348 10.9706V9.55521C88.348 9.23052 88.0852 8.96888 87.7591 8.96888H86.1252C86.0841 8.96888 86.0398 8.97518 86.0018 8.98149V8.80811V6.7402C86.0018 6.19801 86.3279 5.86071 86.8535 5.86071H98.4043C102.536 5.86071 102.505 1.01562 102.505 1.01562H83.7125C81.914 1.01562 81.0781 1.80055 81.0781 3.48388V18.7032C81.0781 20.4527 81.9045 21.266 83.684 21.266H102.463V21.2597Z" fill="#09C609"/>
<path d="M94.0788 13.31H95.3453C95.6145 13.31 95.8329 13.0925 95.8329 12.8245V11.5352C95.8329 11.2673 95.6145 11.0498 95.3453 11.0498H94.0788C94.0535 11.0498 94.0313 11.0529 94.0092 11.0561C93.8983 11.0624 93.6862 11.0687 93.5595 11.0214C93.3854 10.9584 92.8756 10.6778 92.8756 10.6778C92.8756 10.6778 92.6666 10.4824 92.6476 10.3689V8.95352C92.6476 8.62883 92.3848 8.36719 92.0587 8.36719H90.4249C90.0987 8.36719 89.8359 8.62883 89.8359 8.95352V10.6179C89.8359 10.9426 90.0987 11.2043 90.4249 11.2043H92.0587C92.1347 11.2043 92.2075 11.1885 92.2772 11.1633C92.2772 11.1633 92.5115 11.1191 92.711 11.2326C92.9104 11.3461 93.3569 11.5888 93.3569 11.5888C93.3569 11.5888 93.5152 11.6803 93.588 11.9514V12.8308C93.5912 13.0925 93.8097 13.31 94.0788 13.31Z" fill="#09C609"/>
</svg>
