<svg width="88" height="66" viewBox="0 0 88 66" fill="none" xmlns="http://www.w3.org/2000/svg">
<path d="M77.3436 0.60791H47.3804L59.3657 34.4489L47.3804 65.0886H77.3436L87.5664 34.4489L77.3436 0.60791Z" fill="#EEDB33"/>
<path d="M30.1718 0.60791H0.208485L12.1938 34.4489L0.208485 65.0886H30.1718L40.3945 34.4489L30.1718 0.60791Z" fill="#EEDB33"/>
</svg>
