<svg width="84" height="83" viewBox="0 0 84 83" fill="none" xmlns="http://www.w3.org/2000/svg">
<path fill-rule="evenodd" clip-rule="evenodd" d="M57.6016 5.1875H26.4766C25.1008 5.1875 23.7813 5.73404 22.8084 6.70688C21.8356 7.67973 21.2891 8.99919 21.2891 10.375V41.5C21.2891 42.1879 21.0158 42.8476 20.5294 43.3341C20.0429 43.8205 19.3832 44.0938 18.6953 44.0938C18.0074 44.0938 17.3477 43.8205 16.8613 43.3341C16.3748 42.8476 16.1016 42.1879 16.1016 41.5V10.375C16.1016 7.62338 17.1946 4.98446 19.1403 3.03877C21.086 1.09308 23.7249 0 26.4766 0L57.6016 0C60.3532 0 62.9921 1.09308 64.9378 3.03877C66.8835 4.98446 67.9766 7.62338 67.9766 10.375V41.5C67.9766 42.1879 67.7033 42.8476 67.2169 43.3341C66.7305 43.8205 66.0707 44.0938 65.3828 44.0938C64.6949 44.0938 64.0352 43.8205 63.5488 43.3341C63.0623 42.8476 62.7891 42.1879 62.7891 41.5V10.375C62.7891 8.99919 62.2425 7.67973 61.2697 6.70688C60.2968 5.73404 58.9774 5.1875 57.6016 5.1875ZM62.7891 72.625C62.7891 74.0008 62.2425 75.3203 61.2697 76.2931C60.2968 77.266 58.9774 77.8125 57.6016 77.8125H26.4766C25.1008 77.8125 23.7813 77.266 22.8084 76.2931C21.8356 75.3203 21.2891 74.0008 21.2891 72.625V62.25C21.2891 61.5621 21.0158 60.9024 20.5294 60.4159C20.0429 59.9295 19.3832 59.6562 18.6953 59.6562C18.0074 59.6562 17.3477 59.9295 16.8613 60.4159C16.3748 60.9024 16.1016 61.5621 16.1016 62.25V72.625C16.1016 75.3766 17.1946 78.0155 19.1403 79.9612C21.086 81.9069 23.7249 83 26.4766 83H57.6016C60.3532 83 62.9921 81.9069 64.9378 79.9612C66.8835 78.0155 67.9766 75.3766 67.9766 72.625V62.25C67.9766 61.5621 67.7033 60.9024 67.2169 60.4159C66.7305 59.9295 66.0707 59.6562 65.3828 59.6562C64.6949 59.6562 64.0352 59.9295 63.5488 60.4159C63.0623 60.9024 62.7891 61.5621 62.7891 62.25V72.625ZM9.42525 41.2614C10.0499 40.9731 10.5344 40.4486 10.7723 39.8031C11.0101 39.1576 10.9818 38.4441 10.6936 37.8195C10.5509 37.5102 10.3486 37.232 10.0984 37.0009C9.84822 36.7698 9.55493 36.5902 9.23532 36.4725C8.58984 36.2346 7.87631 36.2629 7.25169 36.5511C5.45163 37.3811 3.85906 38.3564 2.67631 39.508C1.49356 40.6804 0.539062 42.2211 0.539062 44.0938C0.539062 46.9261 2.65556 48.97 4.80837 50.3239C7.09088 51.7661 10.2189 52.9696 13.8606 53.9344C21.1749 55.8849 31.1349 57.0625 42.0391 57.0625C42.5526 57.0625 43.061 57.0625 43.5642 57.0521L37.6089 63.0074C37.3678 63.2485 37.1765 63.5348 37.046 63.8499C36.9155 64.165 36.8483 64.5027 36.8483 64.8438C36.8483 65.1848 36.9155 65.5225 37.046 65.8376C37.1765 66.1527 37.3678 66.439 37.6089 66.6801C38.096 67.1672 38.7565 67.4408 39.4453 67.4408C39.7864 67.4408 40.1241 67.3736 40.4392 67.2431C40.7542 67.1126 41.0405 66.9213 41.2817 66.6801L51.6567 56.3051C51.8982 56.0642 52.0899 55.778 52.2206 55.4628C52.3514 55.1477 52.4187 54.8099 52.4187 54.4688C52.4187 54.1276 52.3514 53.7898 52.2206 53.4747C52.0899 53.1595 51.8982 52.8733 51.6567 52.6324L41.2817 42.2574C41.0405 42.0162 40.7542 41.8249 40.4392 41.6944C40.1241 41.5639 39.7864 41.4967 39.4453 41.4967C39.1043 41.4967 38.7666 41.5639 38.4515 41.6944C38.1364 41.8249 37.8501 42.0162 37.6089 42.2574C37.3678 42.4985 37.1765 42.7848 37.046 43.0999C36.9155 43.415 36.8483 43.7527 36.8483 44.0938C36.8483 44.4348 36.9155 44.7725 37.046 45.0876C37.1765 45.4027 37.3678 45.689 37.6089 45.9301L43.5486 51.8646L42.0391 51.875C31.4566 51.875 21.9634 50.7286 15.1989 48.9233C11.7959 48.0155 9.22812 46.9832 7.57331 45.9405C5.78881 44.8148 5.72656 44.1249 5.72656 44.0938C5.72656 44.0782 5.72656 43.7877 6.30756 43.2119C6.90412 42.6309 7.91569 41.9565 9.42006 41.2614H9.42525ZM76.8264 36.5511C76.2018 36.2629 75.4883 36.2346 74.8428 36.4725C74.1973 36.7103 73.6728 37.1949 73.3845 37.8195C73.0963 38.4441 73.068 39.1576 73.3059 39.8031C73.5437 40.4486 74.0283 40.9731 74.6529 41.2614C76.1676 41.9565 77.174 42.6309 77.7654 43.2171C78.3516 43.7877 78.3516 44.0782 78.3516 44.0938C78.3516 44.1093 78.3516 44.4309 77.6772 45.0638C76.9924 45.6967 75.8512 46.4126 74.1653 47.1388C70.8193 48.5913 65.886 49.8519 59.8322 50.7026C59.1605 50.8095 58.5577 51.1759 58.1536 51.723C57.7495 52.27 57.5764 52.9539 57.6716 53.6273C57.7668 54.3008 58.1228 54.9098 58.6627 55.3234C59.2027 55.7369 59.8835 55.9218 60.5584 55.8382C66.8457 54.9564 72.2822 53.6076 76.2247 51.9061C78.1959 51.0554 79.9234 50.0542 81.2047 48.8611C82.4808 47.6731 83.5391 46.0754 83.5391 44.0938C83.5391 42.2159 82.5846 40.67 81.4018 39.5132C80.2191 38.3564 78.6265 37.3811 76.8264 36.5511ZM39.4453 10.375C38.7574 10.375 38.0977 10.6483 37.6113 11.1347C37.1248 11.6211 36.8516 12.2808 36.8516 12.9688C36.8516 13.6567 37.1248 14.3164 37.6113 14.8028C38.0977 15.2892 38.7574 15.5625 39.4453 15.5625H44.6328C45.3207 15.5625 45.9804 15.2892 46.4669 14.8028C46.9533 14.3164 47.2266 13.6567 47.2266 12.9688C47.2266 12.2808 46.9533 11.6211 46.4669 11.1347C45.9804 10.6483 45.3207 10.375 44.6328 10.375H39.4453Z" fill="#EEDB33"/>
</svg>
